@startuml

title __LESSONS_THINGS's Class Diagram__\n

  package tasks.Lesson23.lessons_things {
    abstract class Person {
        - health : int
        - name : String
        - damage : int
        - defence : int
        + Person()
        + getDamage()
        # setDamage()
        + getHealth()
        + getName()
        # setDefence()
        + getDefence()
        + toString()
    }
  }
  

  package tasks.Lesson23.lessons_things {
    class rndGenerator {
        {static} + getRnd()
    }
  }
  



right footer


PlantUML diagram generated by SketchIt! (https://bitbucket.org/pmesmeur/sketch.it)
For more information about this tool, please contact philippe.mesmeur@gmail.com
endfooter

@enduml
