@startuml

title __SIMPLE_BASH_INTERPRETER's Class Diagram__\n

  package simple_bash_interpreter {
    class MyFieVisitor {
        - word : String
        ~ MyFieVisitor()
        + visitFile()
        {static} - findTheWord()
    }
  }
  

  package simple_bash_interpreter {
    interface MyPrintableInterface {
        {abstract} + print()
    }
  }
  

  package simple_bash_interpreter {
    class SimpleBashInterpreter {
        {static} - NO_ARGUMENT : String
        {static} - WRONG_COMMAND : String
        {static} - INPUT_COMMAND : String
        {static} - CURRENT_DIRECTORY_IS : String
        {static} ~ NO_SUCH_DIRECTORY : String
        {static} - GREETING : String
        {static} - ROOT : String
        {static} ~ currentFolder : File
        {static} + main()
        {static} - ls()
        {static} ~ pwd()
        {static} - cd()
        {static} - printGreeting()
        {static} - grep()
        {static} - printTree()
    }
  }
  

  package simple_bash_interpreter {
    class Tree {
        {static} - TABULATOR : String
        {static} - LINE : String
        {static} - FILEMARK : String
        {static} - currentFolder : File
        ~ Tree()
        {static} - printDelimiter()
        {static} - printFile()
        {static} - printFolder()
        + print()
        {static} - printUsingTreeLevels()
    }
  }
  

  package simple_bash_interpreter {
    class Util {
        {static} - WRONG_INPUT : String
        {static} ~ readFromConsole()
        {static} ~ readArrayFromConsole()
        {static} ~ checkIfDirectoryExists()
        {static} ~ setParentFolder()
        {static} - isRoot()
        {static} ~ setSubFolder()
    }
  }
  

  MyFieVisitor -up-|> SimpleFileVisitor
  Tree -up-|> MyPrintableInterface


right footer


PlantUML diagram generated by SketchIt! (https://bitbucket.org/pmesmeur/sketch.it)
For more information about this tool, please contact philippe.mesmeur@gmail.com
endfooter

@enduml
